1458625308706,104,Hit url,200,OK,SRA - Thread Group 1-1,text,true,3952,1,1,104
1458625349804,684,Authenticate,200,OK,SRA - Thread Group 1-1,text,true,5426,1,1,571
1458625365157,58,Available actions,200,OK,SRA - Thread Group 1-1,text,true,3167,1,1,58
1458625383414,106,Start form,200,OK,SRA - Thread Group 1-1,text,true,2978,1,1,106
1458625400239,393,Launch process,201,Created,SRA - Thread Group 1-1,text,true,5497,1,1,393
1458625410683,60,Refer application to DILGP (SARA) - Select Act from radio,200,OK,SRA - Thread Group 1-1,text,true,3975,1,1,60
1458625428290,1835,Refer application to DILGP (SARA) - Submit action,201,Created,SRA - Thread Group 1-1,text,true,8791,1,1,1834
1458625447142,1122,Enter Location details - Add multiple Lots button click,201,Created,SRA - Thread Group 1-1,text,true,5324,1,1,1122
1458625455575,68,Search multiple lots Lot - Enter Lot and Plan,200,OK,SRA - Thread Group 1-1,text,true,5121,1,1,67
1458625464089,1394,Search multiple Lot - Search button click,201,Created,SRA - Thread Group 1-1,text,true,11881,1,1,1394
1458625486450,372,Lot search results - Click refresh,201,Created,SRA - Thread Group 1-1,text,true,10887,1,1,372
1458625509030,135,Lot search results - Select Site of development,200,OK,SRA - Thread Group 1-1,text,true,10853,1,1,135
1458625531954,1777,Lot search results - Click submit,201,Created,SRA - Thread Group 1-1,text,true,10681,1,1,1777
1458625553612,2302,Enter Location details  - click next,201,Created,SRA - Thread Group 1-1,text,true,5627,1,1,2302
1458625574223,219,Applicant details - select applicant type,200,OK,SRA - Thread Group 1-1,text,true,10492,1,1,219
1458625593372,1615,SRA Applicant details - Click Next button,201,Created,SRA - Thread Group 1-1,text,true,7116,1,1,1614
1458625617330,130,Assessment manger details - Enter all details,200,OK,SRA - Thread Group 1-1,text,true,6667,1,1,130
1458625630893,3025,Assessment manager details - Click Next button,201,Created,SRA - Thread Group 1-1,text,true,11433,1,1,3025
1458625642533,831,Referral agency details - Search trigger,201,Created,SRA - Thread Group 1-1,text,true,9210,1,1,831
1458625653405,152,Referral agency details - Select trigger,200,OK,SRA - Thread Group 1-1,text,true,9202,1,1,151
1458625673401,130,Referral agency details - Add trigger button,200,OK,SRA - Thread Group 1-1,text,true,3518,1,1,130
1458625703722,543,Referral agency details - Click next button,500,Internal Server Error,SRA - Thread Group 1-1,text,false,610,1,1,542
1458625729330,138,Documents - Browse button click session start request,200,OK,SRA - Thread Group 1-1,text,true,427,1,1,138
1458625737539,303,Documents - Select document to upload,200,OK,SRA - Thread Group 1-1,text,true,705,1,1,303
1458625744878,104,Documents - File uploaded in local Appian folder,200,OK,SRA - Thread Group 1-1,text,true,431,1,1,103
