Description,Method,p1,p2,p3,p4,p5,p6,p7,p8,p9,p10,p11,p12,p13,p14,p15,p16,p17,p18,p19,p20,p21,p22,p23,p24,p25,p26,p27
1,openBrowser,firefox,https://dsdipstage.appiancloud.com/suite/tempo,,,,,,,,,,,,,,,,,,,,,,,,,
2,login,martin.carroll,@appian2016,,,,,,,,,,,,,,,,,,,,,,,,,
3,application,Refer_application,P&D - Planning and Development Act 2015,,,,,,,,,,,,,,,,,,,,,,,,,
4,addlot,validate,2SP236797,223SP245353,,,,,,,,,,,,,,,,,,,,,,,,
5,enterFurtherLocationDetails,No,,,,,,,,,,,,,,,,,,,,,,,,,,
6,enterapplicantdetails,,Martin.Carroll@dilgp.qld.gov.au,,,,,,,,,,,,,,,,,,,,,,,,,
7,enterAssessmentDetails,Some text,Gold Coast City Council,Material change of use,Development permit,Code assessment,,Martin.Carroll@dilgp.qld.gov.au,6.3.7,,,,,,,,,,,,,,,,,,,
8,selectReferralTriggers,7.2.12,,,,,,,,,,,,,,,,,,,,,,,,,,
9,manageDocumentsEasyPrep,,,,,,,,,,,,,,,,,,,,,,,,,,,
10,confirmApplicationDetails,,,,,,,,,,,,,,,,,,,,,,,,,,,
11,applicationPackageAndEmail,,,,,,,,,,,,,,,,,,,,,,,,,,,
12,referToDSDIP,,,,,,,,,,,,,,,,,,,,,,,,,,,
13,selectPayItemsTempo,,,,,,,,,,,,,,,,,,,,,,,,,,,
14,enterBillingAndConcessionDetails,,,,,,,,,,,,,,,,,,,,,,,,,,,
15,confirmPaymentDetailsTempo,,,,,,,,,,,,,,,,,,,,,,,,,,,
16,login,AllocationOfficer_SEQSouthGC_1,appian@2015,,,,,,,,,,,,,,,,,,,,,,,,,
17,allocateCaseTempo,AdminOfficer _SEQSouthGC_1,CaseOfficer _SEQSouthGC_1,PlanningManager _SEQSouthGC_1,,,,,,,,,,,,,,,,,,,,,,,,
18,login,AdminOfficer_SEQSouthGC_1,appian@2015,,,,,,,,,,,,,,,,,,,,,,,,,
19,ValidateApplication,SRA,,,,,,,,,,,,,,,,,,,,,,,,,,
20,login,CaseOfficer_SEQSouthGC_1,appian@2015,,,,,,,,,,,,,,,,,,,,,,,,,
21,reviewtriggersTempo,,,,,,,,,,,,,,,,,,,,,,,,,,,
22,ReviewEarlyReferralResponses,,,,,,,,,,,,,,,,,,,,,,,,,,,
23,selectPayItemsTempo,,,,,,,,,,,,,,,,,,,,,,,,,,,
24,ValidateApplication,SRA,,,,,,,,,,,,,,,,,,,,,,,,,,
25,IdentifyValidationOutcome,Properly,,,,,,,,,,,,,,,,,,,,,,,,,,
26,reviewProperlyReferredNotice,,,,,,,,,,,,,,,,,,,,,,,,,,,
27,login,PlanningManager_SEQSouthGC_1,appian@2015,,,,,,,,,,,,,,,,,,,,,,,,,
28,approveProperlyReferredNotice,,,,,,,,,,,,,,,,,,,,,,,,,,,
29,login,CaseOfficer_SEQSouthGC_1,appian@2015,,,,,,,,,,,,,,,,,,,,,,,,,
30,requestForFurtherInformation,,,,,,,,,,,,,,,,,,,,,,,,,,,
31,openBrowser,firefox,https://dsdipstage.appiancloud.com/database/index.php,,,,,,,,,,,,,,,,,,,,,,,,,
32,login,martin.carroll,@appian2016,,,,,,,,,,,,,,,,,,,,,,,,,
33,doReconciliation,,,,,,,,,,,,,,,,,,,,,,,,,,,
34,openBrowser,firefox,https://dsdipstage.appiancloud.com/suite/tempo,,,,,,,,,,,,,,,,,,,,,,,,,
35,login,CaseOfficer_SEQSouthGC_1,appian@2015,,,,,,,,,,,,,,,,,,,,,,,,,
36,ProvideRecommendation,Approval,Model conditions only,,,,,,,,,,,,,,,,,,,,,,,,,
37,ReviewResponseNotice,PlanningManager _SEQSouthGC_1,,,,,,,,,,,,,,,,,,,,,,,,,,
38,Advice,,,,,,,,,,,,,,,,,,,,,,,,,,,
39,Advice,,,,,,,,,,,,,,,,,,,,,,,,,,,
40,login,PlanningManager_SEQSouthGC_1,appian@2015,,,,,,,,,,,,,,,,,,,,,,,,,
41,ApproveResponseNotice,,,,,,,,,,,,,,,,,,,,,,,,,,,
