Description,Method,p1,p2,p3,p4,p5,p6,p7,p8,p9,p10,p11,p12,p13,p14,p15,p16,p17,p18,p19,p20,p21,p22,p23,p24,p25,p26,p27,p28,p29,p30,p31,p32,p33
1,x,ServerToTest,firefox,https://mydastest.appiancloud.com/suite/tempo,,,,,,,,,,,,,,,,,,,,,,,,,
1,x,ServerToTest,firefox,https://dsdipstage.appiancloud.com/suite/tempo,,,,,,,,,,,,,,,,,,,,,,,,,
1,ServerToTest,firefox,https://dsdiptrain.appiancloud.com/suite/tempo,,,,,,,,,,,,,,,,,,,,,,,,,
2,login,martin.carroll,@appian2016,,,,,,,,,,,,,,,,,,,,,,,,,,,,,,,
3,application,Missed_referral,SARA as a missed referral agency.,,,,,,,,,,,,,,,,,,,,,,,,,,,,,,,
4,addlot,validate,2SP236797,223SP245353,,,,,,,,,,,,,,,,,,,,,,,,,,,,,,
5,enterapplicantdetails,,Martin.Carroll@dilgp.qld.gov.au,,,,,,,,,,,,,,,,,,,,,,,,,,,,,,,
6,registerrecord,,,,,,,,,,,,,,,,,,,,,,,,,,,,,,,,,
7,closeBrowser,,

