Description,Method,p1,p2,p3,p4,p5,p6,p7,p8,p9,p10,p11,p12,p13,p14,p15,p16,p17,p18,p19,p20,p21,p22,p23,p24,p25,p26,p27,p28,p29,p30,p31,p32,p33
1,x,ServerToTest,firefox,https://mydastest.appiancloud.com/suite/apps,,,,,,,,,,,,,,,,,,,,,,,,,,,,,,
2,x,ServerToTest,firefox,https://dsdipstage.appiancloud.com/suite/apps,,,,,,,,,,,,,,,,,,,,,,,,,,,,,,
3,ServerToTest,firefox,https://dsdiptrain.appiancloud.com/suite/apps,,,,,,,,,,,,,,,,,,,,,,,,,,,,,,,
4,login,martin.carroll,@appian2016,,,,,,,,,,,,,,,,,,,,,,,,,,,,,,,
5,preparedevelopmentapplication,quick,,,,,,,,,,,,,,,,,,,,,,,,,,,,,,,,
6,addcontactDetails,,Martin.Carroll@dilgp.qld.gov.au,,,,,,,,,,,,,,,,,,,,,,,,,,,,,,,
7,gisinformation,GOLD COAST CITY,yes,2SP236797,,,,,,,,,,,,,,,,,,,,,,,,,,,,,,
8,developmentAspect,Material Change of Use,Development permit,Here is a brief description.,Code Assessment,,,,,,,,,,,,,,,,,,,,,,,,,,,,,
9,proceedWithApplication,,,,,,,,,,,,,,,,,,,,,,,,,,,,,,,,,
10,login,martin.carroll,@appian2016,,,,,,,,,,,,,,,,,,,,,,,,,,,,,,,
11,x,Start Change process====================================================,,,,,,,,,,,,,,,,,,,,,,,,,,,,,,,,
12,preparedevelopmentapplication,change,,,,,,,,,,,,,,,,,,,,,,,,,,,,,,,,
13,approvalChanges,change,responsible entity,,,,,,,,,,,,,,,,,,,,,,,,,,,,,,,
14,closeBrowser,,,,,,,,,,,,,,,,,,,,,,,,,,,,,,,,,
